verilog/kd_tree/simulation/modelsim/msim_transcript
# Reading pref.tcl
# do kd_tree_run_msim_rtl_verilog.do
# if {[file exists rtl_work]} {
# 	vdel -lib rtl_work -all
# }
# vlib rtl_work
# vmap work rtl_work
# Model Technology ModelSim - Intel FPGA Edition vmap 2020.1 Lib Mapping Utility 2020.02 Feb 28 2020
# vmap work rtl_work 
# Copying E:/modelSim/modelsim_ase/win32aloem/../modelsim.ini to modelsim.ini
# Modifying modelsim.ini
# 
# vlog -vlog01compat -work work +incdir+C:/Users/oxygen/Documents/GitHub/KMeansClusteringSW/verilog/kd_tree {C:/Users/oxygen/Documents/GitHub/KMeansClusteringSW/verilog/kd_tree/node.v}
# Model Technology ModelSim - Intel FPGA Edition vlog 2020.1 Compiler 2020.02 Feb 28 2020
# Start time: 04:58:18 on Apr 14,2021
# vlog -reportprogress 300 -vlog01compat -work work "+incdir+C:/Users/oxygen/Documents/GitHub/KMeansClusteringSW/verilog/kd_tree" C:/Users/oxygen/Documents/GitHub/KMeansClusteringSW/verilog/kd_tree/node.v 
# -- Compiling module node
# 
# Top level modules:
# 	node
# End time: 04:58:18 on Apr 14,2021, Elapsed time: 0:00:00
# Errors: 0, Warnings: 0
# vlog -vlog01compat -work work +incdir+C:/Users/oxygen/Documents/GitHub/KMeansClusteringSW/verilog/kd_tree {C:/Users/oxygen/Documents/GitHub/KMeansClusteringSW/verilog/kd_tree/manhattan.v}
# Model Technology ModelSim - Intel FPGA Edition vlog 2020.1 Compiler 2020.02 Feb 28 2020
# Start time: 04:58:18 on Apr 14,2021
# vlog -reportprogress 300 -vlog01compat -work work "+incdir+C:/Users/oxygen/Documents/GitHub/KMeansClusteringSW/verilog/kd_tree" C:/Users/oxygen/Documents/GitHub/KMeansClusteringSW/verilog/kd_tree/manhattan.v 
# -- Compiling module manhattan
# 
# Top level modules:
# 	manhattan
# End time: 04:58:18 on Apr 14,2021, Elapsed time: 0:00:00
# Errors: 0, Warnings: 0
# vlog -vlog01compat -work work +incdir+C:/Users/oxygen/Documents/GitHub/KMeansClusteringSW/verilog/kd_tree {C:/Users/oxygen/Documents/GitHub/KMeansClusteringSW/verilog/kd_tree/cluster_CE.v}
# Model Technology ModelSim - Intel FPGA Edition vlog 2020.1 Compiler 2020.02 Feb 28 2020
# Start time: 04:58:18 on Apr 14,2021
# vlog -reportprogress 300 -vlog01compat -work work "+incdir+C:/Users/oxygen/Documents/GitHub/KMeansClusteringSW/verilog/kd_tree" C:/Users/oxygen/Documents/GitHub/KMeansClusteringSW/verilog/kd_tree/cluster_CE.v 
# -- Compiling module cluster_CE
# 
# Top level modules:
# 	cluster_CE
# End time: 04:58:18 on Apr 14,2021, Elapsed time: 0:00:00
# Errors: 0, Warnings: 0
# vlog -vlog01compat -work work +incdir+C:/Users/oxygen/Documents/GitHub/KMeansClusteringSW/verilog/kd_tree {C:/Users/oxygen/Documents/GitHub/KMeansClusteringSW/verilog/kd_tree/kd_tree.v}
# Model Technology ModelSim - Intel FPGA Edition vlog 2020.1 Compiler 2020.02 Feb 28 2020
# Start time: 04:58:19 on Apr 14,2021
# vlog -reportprogress 300 -vlog01compat -work work "+incdir+C:/Users/oxygen/Documents/GitHub/KMeansClusteringSW/verilog/kd_tree" C:/Users/oxygen/Documents/GitHub/KMeansClusteringSW/verilog/kd_tree/kd_tree.v 
# -- Compiling module kd_tree
# ** Warning: C:/Users/oxygen/Documents/GitHub/KMeansClusteringSW/verilog/kd_tree/kd_tree.v(36): (vlog-2600) [RDGN] - Redundant digits in numeric literal.
# ** Warning: C:/Users/oxygen/Documents/GitHub/KMeansClusteringSW/verilog/kd_tree/kd_tree.v(37): (vlog-2600) [RDGN] - Redundant digits in numeric literal.
# 
# Top level modules:
# 	kd_tree
# End time: 04:58:19 on Apr 14,2021, Elapsed time: 0:00:00
# Errors: 0, Warnings: 2
# 
# vlog -vlog01compat -work work +incdir+C:/Users/oxygen/Documents/GitHub/KMeansClusteringSW/verilog/kd_tree {C:/Users/oxygen/Documents/GitHub/KMeansClusteringSW/verilog/kd_tree/kd_tree.v}
# Model Technology ModelSim - Intel FPGA Edition vlog 2020.1 Compiler 2020.02 Feb 28 2020
# Start time: 04:58:19 on Apr 14,2021
# vlog -reportprogress 300 -vlog01compat -work work "+incdir+C:/Users/oxygen/Documents/GitHub/KMeansClusteringSW/verilog/kd_tree" C:/Users/oxygen/Documents/GitHub/KMeansClusteringSW/verilog/kd_tree/kd_tree.v 
# -- Compiling module kd_tree
# ** Warning: C:/Users/oxygen/Documents/GitHub/KMeansClusteringSW/verilog/kd_tree/kd_tree.v(36): (vlog-2600) [RDGN] - Redundant digits in numeric literal.
# ** Warning: C:/Users/oxygen/Documents/GitHub/KMeansClusteringSW/verilog/kd_tree/kd_tree.v(37): (vlog-2600) [RDGN] - Redundant digits in numeric literal.
# 
# Top level modules:
# 	kd_tree
# End time: 04:58:19 on Apr 14,2021, Elapsed time: 0:00:00
# Errors: 0, Warnings: 2
# 
# vsim -t 1ps -L altera_ver -L lpm_ver -L sgate_ver -L altera_mf_ver -L altera_lnsim_ver -L cyclonev_ver -L cyclonev_hssi_ver -L cyclonev_pcie_hip_ver -L rtl_work -L work -voptargs="+acc"  kd_tree
# vsim -t 1ps -L altera_ver -L lpm_ver -L sgate_ver -L altera_mf_ver -L altera_lnsim_ver -L cyclonev_ver -L cyclonev_hssi_ver -L cyclonev_pcie_hip_ver -L rtl_work -L work -voptargs=""+acc"" kd_tree 
# Start time: 04:58:19 on Apr 14,2021
# Loading work.kd_tree
# Loading work.node
# Loading work.cluster_CE
# Loading work.manhattan
# ** Warning: (vsim-2685) [TFMPC] - Too few port connections for 'c_ce'.  Expected 20, found 18.
#    Time: 0 ps  Iteration: 0  Instance: /kd_tree/root/c_ce File: C:/Users/oxygen/Documents/GitHub/KMeansClusteringSW/verilog/kd_tree/node.v Line: 166
# ** Warning: (vsim-3722) C:/Users/oxygen/Documents/GitHub/KMeansClusteringSW/verilog/kd_tree/node.v(166): [TFMPC] - Missing connection for port 'point_prop'.
# ** Warning: (vsim-3722) C:/Users/oxygen/Documents/GitHub/KMeansClusteringSW/verilog/kd_tree/node.v(166): [TFMPC] - Missing connection for port 'send_right'.
# ** Warning: (vsim-2685) [TFMPC] - Too few port connections for 'c_ce'.  Expected 20, found 18.
#    Time: 0 ps  Iteration: 0  Instance: /kd_tree/left/c_ce File: C:/Users/oxygen/Documents/GitHub/KMeansClusteringSW/verilog/kd_tree/node.v Line: 166
# ** Warning: (vsim-3722) C:/Users/oxygen/Documents/GitHub/KMeansClusteringSW/verilog/kd_tree/node.v(166): [TFMPC] - Missing connection for port 'point_prop'.
# ** Warning: (vsim-3722) C:/Users/oxygen/Documents/GitHub/KMeansClusteringSW/verilog/kd_tree/node.v(166): [TFMPC] - Missing connection for port 'send_right'.
# ** Warning: (vsim-2685) [TFMPC] - Too few port connections for 'c_ce'.  Expected 20, found 18.
#    Time: 0 ps  Iteration: 0  Instance: /kd_tree/right/c_ce File: C:/Users/oxygen/Documents/GitHub/KMeansClusteringSW/verilog/kd_tree/node.v Line: 166
# ** Warning: (vsim-3722) C:/Users/oxygen/Documents/GitHub/KMeansClusteringSW/verilog/kd_tree/node.v(166): [TFMPC] - Missing connection for port 'point_prop'.
# ** Warning: (vsim-3722) C:/Users/oxygen/Documents/GitHub/KMeansClusteringSW/verilog/kd_tree/node.v(166): [TFMPC] - Missing connection for port 'send_right'.
# ** Warning: (vsim-3015) [PCDPC] - Port size (24) does not match connection size (32) for port 'data_from_right'. The port definition is at: C:/Users/oxygen/Documents/GitHub/KMeansClusteringSW/verilog/kd_tree/node.v(1).
#    Time: 0 ps  Iteration: 0  Instance: /kd_tree/n1 File: C:/Users/oxygen/Documents/GitHub/KMeansClusteringSW/verilog/kd_tree/kd_tree.v Line: 131
# ** Warning: (vsim-3015) [PCDPC] - Port size (24) does not match connection size (32) for port 'data_from_left'. The port definition is at: C:/Users/oxygen/Documents/GitHub/KMeansClusteringSW/verilog/kd_tree/node.v(1).
#    Time: 0 ps  Iteration: 0  Instance: /kd_tree/n1 File: C:/Users/oxygen/Documents/GitHub/KMeansClusteringSW/verilog/kd_tree/kd_tree.v Line: 131
# ** Warning: (vsim-2685) [TFMPC] - Too few port connections for 'c_ce'.  Expected 20, found 18.
#    Time: 0 ps  Iteration: 0  Instance: /kd_tree/n1/c_ce File: C:/Users/oxygen/Documents/GitHub/KMeansClusteringSW/verilog/kd_tree/node.v Line: 166
# ** Warning: (vsim-3722) C:/Users/oxygen/Documents/GitHub/KMeansClusteringSW/verilog/kd_tree/node.v(166): [TFMPC] - Missing connection for port 'point_prop'.
# ** Warning: (vsim-3722) C:/Users/oxygen/Documents/GitHub/KMeansClusteringSW/verilog/kd_tree/node.v(166): [TFMPC] - Missing connection for port 'send_right'.
# ** Warning: (vsim-3015) [PCDPC] - Port size (24) does not match connection size (32) for port 'data_from_right'. The port definition is at: C:/Users/oxygen/Documents/GitHub/KMeansClusteringSW/verilog/kd_tree/node.v(1).
#    Time: 0 ps  Iteration: 0  Instance: /kd_tree/n2 File: C:/Users/oxygen/Documents/GitHub/KMeansClusteringSW/verilog/kd_tree/kd_tree.v Line: 149
# ** Warning: (vsim-3015) [PCDPC] - Port size (24) does not match connection size (32) for port 'data_from_left'. The port definition is at: C:/Users/oxygen/Documents/GitHub/KMeansClusteringSW/verilog/kd_tree/node.v(1).
#    Time: 0 ps  Iteration: 0  Instance: /kd_tree/n2 File: C:/Users/oxygen/Documents/GitHub/KMeansClusteringSW/verilog/kd_tree/kd_tree.v Line: 149
# ** Warning: (vsim-2685) [TFMPC] - Too few port connections for 'c_ce'.  Expected 20, found 18.
#    Time: 0 ps  Iteration: 0  Instance: /kd_tree/n2/c_ce File: C:/Users/oxygen/Documents/GitHub/KMeansClusteringSW/verilog/kd_tree/node.v Line: 166
# ** Warning: (vsim-3722) C:/Users/oxygen/Documents/GitHub/KMeansClusteringSW/verilog/kd_tree/node.v(166): [TFMPC] - Missing connection for port 'point_prop'.
# ** Warning: (vsim-3722) C:/Users/oxygen/Documents/GitHub/KMeansClusteringSW/verilog/kd_tree/node.v(166): [TFMPC] - Missing connection for port 'send_right'.
# ** Warning: (vsim-3015) [PCDPC] - Port size (24) does not match connection size (32) for port 'data_from_right'. The port definition is at: C:/Users/oxygen/Documents/GitHub/KMeansClusteringSW/verilog/kd_tree/node.v(1).
#    Time: 0 ps  Iteration: 0  Instance: /kd_tree/n3 File: C:/Users/oxygen/Documents/GitHub/KMeansClusteringSW/verilog/kd_tree/kd_tree.v Line: 170
# ** Warning: (vsim-3015) [PCDPC] - Port size (24) does not match connection size (32) for port 'data_from_left'. The port definition is at: C:/Users/oxygen/Documents/GitHub/KMeansClusteringSW/verilog/kd_tree/node.v(1).
#    Time: 0 ps  Iteration: 0  Instance: /kd_tree/n3 File: C:/Users/oxygen/Documents/GitHub/KMeansClusteringSW/verilog/kd_tree/kd_tree.v Line: 170
# ** Warning: (vsim-2685) [TFMPC] - Too few port connections for 'c_ce'.  Expected 20, found 18.
#    Time: 0 ps  Iteration: 0  Instance: /kd_tree/n3/c_ce File: C:/Users/oxygen/Documents/GitHub/KMeansClusteringSW/verilog/kd_tree/node.v Line: 166
# ** Warning: (vsim-3722) C:/Users/oxygen/Documents/GitHub/KMeansClusteringSW/verilog/kd_tree/node.v(166): [TFMPC] - Missing connection for port 'point_prop'.
# ** Warning: (vsim-3722) C:/Users/oxygen/Documents/GitHub/KMeansClusteringSW/verilog/kd_tree/node.v(166): [TFMPC] - Missing connection for port 'send_right'.
# ** Warning: (vsim-3015) [PCDPC] - Port size (24) does not match connection size (32) for port 'data_from_right'. The port definition is at: C:/Users/oxygen/Documents/GitHub/KMeansClusteringSW/verilog/kd_tree/node.v(1).
#    Time: 0 ps  Iteration: 0  Instance: /kd_tree/n4 File: C:/Users/oxygen/Documents/GitHub/KMeansClusteringSW/verilog/kd_tree/kd_tree.v Line: 188
# ** Warning: (vsim-3015) [PCDPC] - Port size (24) does not match connection size (32) for port 'data_from_left'. The port definition is at: C:/Users/oxygen/Documents/GitHub/KMeansClusteringSW/verilog/kd_tree/node.v(1).
#    Time: 0 ps  Iteration: 0  Instance: /kd_tree/n4 File: C:/Users/oxygen/Documents/GitHub/KMeansClusteringSW/verilog/kd_tree/kd_tree.v Line: 188
# ** Warning: (vsim-2685) [TFMPC] - Too few port connections for 'c_ce'.  Expected 20, found 18.
#    Time: 0 ps  Iteration: 0  Instance: /kd_tree/n4/c_ce File: C:/Users/oxygen/Documents/GitHub/KMeansClusteringSW/verilog/kd_tree/node.v Line: 166
# ** Warning: (vsim-3722) C:/Users/oxygen/Documents/GitHub/KMeansClusteringSW/verilog/kd_tree/node.v(166): [TFMPC] - Missing connection for port 'point_prop'.
# ** Warning: (vsim-3722) C:/Users/oxygen/Documents/GitHub/KMeansClusteringSW/verilog/kd_tree/node.v(166): [TFMPC] - Missing connection for port 'send_right'.
# 
# add wave *
# ** Warning: (vsim-WLF-5000) WLF file currently in use: vsim.wlf
#           File in use by: atom  Hostname: LAPTOP-84QNNI6Q  ProcessID: 12788
#           Attempting to use alternate WLF file "./wlft7bn8cy".
# ** Warning: (vsim-WLF-5001) Could not open WLF file: vsim.wlf
#           Using alternate file: ./wlft7bn8cy
# view structure
# .main_pane.structure.interior.cs.body.struct
# view signals
# .main_pane.objects.interior.cs.body.tree
# run -all
# Loading image.
# 
# ** Warning: (vsim-PLI-3407) Too many data words read on line 1 of file "C:/Users/oxygen/Documents/GitHub/KMeansClusteringSW/verilog/sequantial/test.hex". (Current address [20], address range [0:19])    : C:/Users/oxygen/Documents/GitHub/KMeansClusteringSW/verilog/kd_tree/kd_tree.v(208)
#    Time: 0 ps  Iteration: 0  Instance: /kd_tree
#################### new cycle:         0 ##########################
# [        0] idle
# node: n4(rr) center xxxxxx x axis: x command_from [10 xx 10 , self:00 , ce:0] data_from [000000 xxxxxx 000000] command_to [xx xx xx] data_to [xxxxxx xxxxxx xxxxxx]  Child_status [1 1]
# node: n3(rl) center xxxxxx x axis: x command_from [10 xx 10 , self:00 , ce:0] data_from [000000 xxxxxx 000000] command_to [xx xx xx] data_to [xxxxxx xxxxxx xxxxxx]  Child_status [1 1]
# node: n2(lr) center xxxxxx x axis: x command_from [10 xx 10 , self:00 , ce:0] data_from [000000 xxxxxx 000000] command_to [xx xx xx] data_to [xxxxxx xxxxxx xxxxxx]  Child_status [1 1]
# node: n1(ll) center xxxxxx x axis: x command_from [10 xx 10 , self:00 , ce:0] data_from [000000 xxxxxx 000000] command_to [xx xx xx] data_to [xxxxxx xxxxxx xxxxxx]  Child_status [1 1]
# node: root-right center xxxxxx x axis: x command_from [xx xx xx , self:xx , ce:x] data_from [xxxxxx xxxxxx xxxxxx] command_to [xx xx xx] data_to [xxxxxx xxxxxx xxxxxx]  Child_status [x x]
# node: root-left  center xxxxxx x axis: x command_from [xx xx xx , self:xx , ce:x] data_from [xxxxxx xxxxxx xxxxxx] command_to [xx xx xx] data_to [xxxxxx xxxxxx xxxxxx]  Child_status [x x]
# node: root  center xxxxxx x axis: x command_from [xx 1f xx , self:xx , ce:x] data_from [xxxxxx xxxxxx xxxxxx] command_to [xx xx xx] data_to [xxxxxx xxxxxx xxxxxx]  Child_status [x x]
#################### new cycle:         1 ##########################
# [        1] idle
# node: n4(rr) center xxxxxx x axis: x command_from [10 xx 10 , self:00 , ce:0] data_from [000000 xxxxxx 000000] command_to [xx xx xx] data_to [xxxxxx xxxxxx xxxxxx]  Child_status [1 1]
# node: n3(rl) center xxxxxx x axis: x command_from [10 xx 10 , self:00 , ce:0] data_from [000000 xxxxxx 000000] command_to [xx xx xx] data_to [xxxxxx xxxxxx xxxxxx]  Child_status [1 1]
# node: n2(lr) center xxxxxx x axis: x command_from [10 xx 10 , self:00 , ce:0] data_from [000000 xxxxxx 000000] command_to [xx xx xx] data_to [xxxxxx xxxxxx xxxxxx]  Child_status [1 1]
# node: n1(ll) center xxxxxx x axis: x command_from [10 xx 10 , self:00 , ce:0] data_from [000000 xxxxxx 000000] command_to [xx xx xx] data_to [xxxxxx xxxxxx xxxxxx]  Child_status [1 1]
# node: root-right center xxxxxx x axis: x command_from [xx 1f xx , self:xx , ce:x] data_from [xxxxxx 000000 xxxxxx] command_to [xx xx xx] data_to [xxxxxx xxxxxx xxxxxx]  Child_status [x x]
# node: root-left  center xxxxxx x axis: x command_from [xx 1f xx , self:xx , ce:x] data_from [xxxxxx 000000 xxxxxx] command_to [xx xx xx] data_to [xxxxxx xxxxxx xxxxxx]  Child_status [x x]
# node: root  center xxxxxx x axis: 0 command_from [xx 1f xx , self:xx , ce:x] data_from [xxxxxx xxxxxx xxxxxx] command_to [1f xx 1f] data_to [000000 000000 000000]  Child_status [x x]
#################### new cycle:         2 ##########################
# [        2] idle
# node: n4(rr) center xxxxxx x axis: x command_from [10 1f 10 , self:00 , ce:0] data_from [000000 000000 000000] command_to [xx xx xx] data_to [xxxxxx xxxxxx xxxxxx]  Child_status [1 1]
# node: n3(rl) center xxxxxx x axis: x command_from [10 1f 10 , self:00 , ce:0] data_from [000000 000000 000000] command_to [xx xx xx] data_to [xxxxxx xxxxxx xxxxxx]  Child_status [1 1]
# node: n2(lr) center xxxxxx x axis: x command_from [10 1f 10 , self:00 , ce:0] data_from [000000 000000 000000] command_to [xx xx xx] data_to [xxxxxx xxxxxx xxxxxx]  Child_status [1 1]
# node: n1(ll) center xxxxxx x axis: x command_from [10 1f 10 , self:00 , ce:0] data_from [000000 000000 000000] command_to [xx xx xx] data_to [xxxxxx xxxxxx xxxxxx]  Child_status [1 1]
# node: root-right center xxxxxx x axis: 0 command_from [xx 1f xx , self:xx , ce:x] data_from [xxxxxx 000000 xxxxxx] command_to [1f xx 1f] data_to [000000 000000 000000]  Child_status [x x]
# node: root-left  center xxxxxx x axis: 0 command_from [xx 1f xx , self:xx , ce:x] data_from [xxxxxx 000000 xxxxxx] command_to [1f xx 1f] data_to [000000 000000 000000]  Child_status [x x]
# node: root  center xxxxxx x axis: 0 command_from [xx 1f xx , self:xx , ce:x] data_from [000000 xxxxxx 000000] command_to [1f xx 1f] data_to [000000 000000 000000]  Child_status [x x]
#################### new cycle:         3 ##########################
# [        3] idle
# node: n4(rr) center 000000 0 axis: 0 command_from [10 1f 10 , self:00 , ce:0] data_from [000000 000000 000000] command_to [00 1e 00] data_to [000000 000000 000000]  Child_status [1 1]
# node: n3(rl) center 000000 0 axis: 0 command_from [10 1f 10 , self:00 , ce:0] data_from [000000 000000 000000] command_to [00 1e 00] data_to [000000 000000 000000]  Child_status [1 1]
# node: n2(lr) center 000000 0 axis: 0 command_from [10 1f 10 , self:00 , ce:0] data_from [000000 000000 000000] command_to [00 1e 00] data_to [000000 000000 000000]  Child_status [1 1]
# node: n1(ll) center 000000 0 axis: 0 command_from [10 1f 10 , self:00 , ce:0] data_from [000000 000000 000000] command_to [00 1e 00] data_to [000000 000000 000000]  Child_status [1 1]
# node: root-right center xxxxxx x axis: 0 command_from [1e 1f 1e , self:xx , ce:x] data_from [000000 000000 000000] command_to [1f xx 1f] data_to [000000 000000 000000]  Child_status [0 0]
# node: root-left  center xxxxxx x axis: 0 command_from [1e 1f 1e , self:xx , ce:x] data_from [000000 000000 000000] command_to [1f xx 1f] data_to [000000 000000 000000]  Child_status [0 0]
# node: root  center xxxxxx x axis: 0 command_from [xx 1f xx , self:xx , ce:x] data_from [000000 xxxxxx 000000] command_to [1f xx 1f] data_to [000000 000000 000000]  Child_status [x x]
#################### new cycle:         4 ##########################
# [        4] idle
# node: n4(rr) center 000000 0 axis: 0 command_from [10 00 10 , self:00 , ce:0] data_from [000000 000000 000000] command_to [00 1e 00] data_to [000000 000000 000000]  Child_status [1 1]
# node: n3(rl) center 000000 0 axis: 0 command_from [10 00 10 , self:00 , ce:0] data_from [000000 000000 000000] command_to [00 1e 00] data_to [000000 000000 000000]  Child_status [1 1]
# node: n2(lr) center 000000 0 axis: 0 command_from [10 00 10 , self:00 , ce:0] data_from [000000 000000 000000] command_to [00 1e 00] data_to [000000 000000 000000]  Child_status [1 1]
# node: n1(ll) center 000000 0 axis: 0 command_from [10 00 10 , self:00 , ce:0] data_from [000000 000000 000000] command_to [00 1e 00] data_to [000000 000000 000000]  Child_status [1 1]
# node: root-right center 000000 0 axis: 0 command_from [1e 1f 1e , self:00 , ce:0] data_from [000000 000000 000000] command_to [00 1e 00] data_to [000000 000000 000000]  Child_status [0 0]
# node: root-left  center 000000 0 axis: 0 command_from [1e 1f 1e , self:00 , ce:0] data_from [000000 000000 000000] command_to [00 1e 00] data_to [000000 000000 000000]  Child_status [0 0]
# node: root  center xxxxxx x axis: 0 command_from [1e 1f 1e , self:xx , ce:x] data_from [000000 xxxxxx 000000] command_to [1f xx 1f] data_to [000000 000000 000000]  Child_status [0 0]
#################### new cycle:         5 ##########################
# [        5] rst DONE
# node: n4(rr) center 000000 0 axis: 0 command_from [10 00 10 , self:00 , ce:0] data_from [000000 000000 000000] command_to [00 1e 00] data_to [000000 000000 000000]  Child_status [1 1]
# node: n3(rl) center 000000 0 axis: 0 command_from [10 00 10 , self:00 , ce:0] data_from [000000 000000 000000] command_to [00 1e 00] data_to [000000 000000 000000]  Child_status [1 1]
# node: n2(lr) center 000000 0 axis: 0 command_from [10 00 10 , self:00 , ce:0] data_from [000000 000000 000000] command_to [00 1e 00] data_to [000000 000000 000000]  Child_status [1 1]
# node: n1(ll) center 000000 0 axis: 0 command_from [10 00 10 , self:00 , ce:0] data_from [000000 000000 000000] command_to [00 1e 00] data_to [000000 000000 000000]  Child_status [1 1]
# node: root-right center 000000 0 axis: 0 command_from [1e 00 1e , self:00 , ce:0] data_from [000000 000000 000000] command_to [00 1e 00] data_to [000000 000000 000000]  Child_status [0 0]
# node: root-left  center 000000 0 axis: 0 command_from [1e 00 1e , self:00 , ce:0] data_from [000000 000000 000000] command_to [00 1e 00] data_to [000000 000000 000000]  Child_status [0 0]
# node: root  center 000000 0 axis: 0 command_from [1e 1f 1e , self:00 , ce:0] data_from [000000 xxxxxx 000000] command_to [00 1e 00] data_to [000000 000000 000000]  Child_status [0 0]
#################### new cycle:         6 ##########################
# [        6] fill_center_tb tb_data: xxxxxx tb_command: 11111 serial_Count:         0 root_command_up: 11110
# node: n4(rr) center 000000 0 axis: 0 command_from [10 00 10 , self:00 , ce:0] data_from [000000 000000 000000] command_to [00 1e 00] data_to [000000 000000 000000]  Child_status [1 1]
# node: n3(rl) center 000000 0 axis: 0 command_from [10 00 10 , self:00 , ce:0] data_from [000000 000000 000000] command_to [00 1e 00] data_to [000000 000000 000000]  Child_status [1 1]
# node: n2(lr) center 000000 0 axis: 0 command_from [10 00 10 , self:00 , ce:0] data_from [000000 000000 000000] command_to [00 1e 00] data_to [000000 000000 000000]  Child_status [1 1]
# node: n1(ll) center 000000 0 axis: 0 command_from [10 00 10 , self:00 , ce:0] data_from [000000 000000 000000] command_to [00 1e 00] data_to [000000 000000 000000]  Child_status [1 1]
# node: root-right center 000000 0 axis: 0 command_from [1e 00 1e , self:00 , ce:0] data_from [000000 000000 000000] command_to [00 1e 00] data_to [000000 000000 000000]  Child_status [0 0]
# node: root-left  center 000000 0 axis: 0 command_from [1e 00 1e , self:00 , ce:0] data_from [000000 000000 000000] command_to [00 1e 00] data_to [000000 000000 000000]  Child_status [0 0]
# node: root  center 000000 0 axis: 0 command_from [1e 01 1e , self:00 , ce:0] data_from [000000 001001 000000] command_to [00 1e 00] data_to [000000 000000 000000]  Child_status [0 0]
#################### new cycle:         7 ##########################
# [        7] fill_center_tb tb_data: 001001 tb_command: 00001 serial_Count:         1 root_command_up: 00000
# node: n4(rr) center 000000 0 axis: 0 command_from [10 00 10 , self:00 , ce:0] data_from [000000 000000 000000] command_to [00 1e 00] data_to [000000 000000 000000]  Child_status [1 1]
# node: n3(rl) center 000000 0 axis: 0 command_from [10 00 10 , self:00 , ce:0] data_from [000000 000000 000000] command_to [00 1e 00] data_to [000000 000000 000000]  Child_status [1 1]
# node: n2(lr) center 000000 0 axis: 0 command_from [10 00 10 , self:00 , ce:0] data_from [000000 000000 000000] command_to [00 1e 00] data_to [000000 000000 000000]  Child_status [1 1]
# node: n1(ll) center 000000 0 axis: 0 command_from [10 00 10 , self:00 , ce:0] data_from [000000 000000 000000] command_to [00 1e 00] data_to [000000 000000 000000]  Child_status [1 1]
# node: root-right center 000000 0 axis: 0 command_from [1e 00 1e , self:00 , ce:0] data_from [000000 000000 000000] command_to [00 1e 00] data_to [000000 000000 000000]  Child_status [0 0]
# node: root-left  center 000000 0 axis: 0 command_from [1e 01 1e , self:00 , ce:0] data_from [000000 001001 000000] command_to [00 1e 00] data_to [000000 000000 000000]  Child_status [0 0]
# node: root  center 000000 0 axis: 0 command_from [1e 01 1e , self:00 , ce:0] data_from [000000 000120 000000] command_to [01 00 00] data_to [001001 000000 000000]  Child_status [0 0]
#################### new cycle:         8 ##########################
# [        8] fill_center_tb tb_data: 000120 tb_command: 00001 serial_Count:         2 root_command_up: 00000
# node: n4(rr) center 000000 0 axis: 0 command_from [10 00 10 , self:00 , ce:0] data_from [000000 000000 000000] command_to [00 1e 00] data_to [000000 000000 000000]  Child_status [1 1]
# node: n3(rl) center 000000 0 axis: 0 command_from [10 00 10 , self:00 , ce:0] data_from [000000 000000 000000] command_to [00 1e 00] data_to [000000 000000 000000]  Child_status [1 1]
# node: n2(lr) center 000000 0 axis: 0 command_from [10 00 10 , self:00 , ce:0] data_from [000000 000000 000000] command_to [00 1e 00] data_to [000000 000000 000000]  Child_status [1 1]
# node: n1(ll) center 000000 0 axis: 0 command_from [10 01 10 , self:00 , ce:0] data_from [000000 001001 000000] command_to [00 1e 00] data_to [000000 000000 000000]  Child_status [1 1]
# node: root-right center 000000 0 axis: 0 command_from [1e 00 1e , self:00 , ce:0] data_from [000000 000000 000000] command_to [00 1e 00] data_to [000000 000000 000000]  Child_status [0 0]
# node: root-left  center 000000 0 axis: 0 command_from [1e 01 1e , self:00 , ce:0] data_from [000000 000120 000000] command_to [01 00 00] data_to [001001 000000 000000]  Child_status [0 0]
# node: root  center 000000 0 axis: 0 command_from [00 01 1e , self:00 , ce:0] data_from [000000 000003 000000] command_to [01 00 00] data_to [000120 000000 000000]  Child_status [0 0]
#################### new cycle:         9 ##########################
# [        9] fill_center_tb tb_data: 000003 tb_command: 00001 serial_Count:         3 root_command_up: 00000
# node: n4(rr) center 000000 0 axis: 0 command_from [10 00 10 , self:00 , ce:0] data_from [000000 000000 000000] command_to [00 1e 00] data_to [000000 000000 000000]  Child_status [1 1]
# node: n3(rl) center 000000 0 axis: 0 command_from [10 00 10 , self:00 , ce:0] data_from [000000 000000 000000] command_to [00 1e 00] data_to [000000 000000 000000]  Child_status [1 1]
# node: n2(lr) center 000000 0 axis: 0 command_from [10 00 10 , self:00 , ce:0] data_from [000000 000000 000000] command_to [00 1e 00] data_to [000000 000000 000000]  Child_status [1 1]
# node: n1(ll) center 001001 0 axis: 0 command_from [10 01 10 , self:00 , ce:0] data_from [000000 000120 000000] command_to [00 05 00] data_to [000000 000000 000000]  Child_status [1 1]
# node: root-right center 000000 0 axis: 0 command_from [1e 00 1e , self:00 , ce:0] data_from [000000 000000 000000] command_to [00 1e 00] data_to [000000 000000 000000]  Child_status [0 0]
# node: root-left  center 000000 0 axis: 0 command_from [05 01 1e , self:00 , ce:0] data_from [000000 000003 000000] command_to [01 00 00] data_to [000120 000000 000000]  Child_status [0 0]
# node: root  center 000000 0 axis: 0 command_from [00 01 1e , self:00 , ce:0] data_from [000000 000000 000000] command_to [01 00 00] data_to [000003 000000 000000]  Child_status [0 0]
#################### new cycle:        10 ##########################
# [       10] fill_center_tb tb_data: 000000 tb_command: 00001 serial_Count:         4 root_command_up: 00000
# node: n4(rr) center 000000 0 axis: 0 command_from [10 00 10 , self:00 , ce:0] data_from [000000 000000 000000] command_to [00 1e 00] data_to [000000 000000 000000]  Child_status [1 1]
# node: n3(rl) center 000000 0 axis: 0 command_from [10 00 10 , self:00 , ce:0] data_from [000000 000000 000000] command_to [00 1e 00] data_to [000000 000000 000000]  Child_status [1 1]
# node: n2(lr) center 000000 0 axis: 0 command_from [10 01 10 , self:00 , ce:0] data_from [000000 000120 000000] command_to [00 1e 00] data_to [000000 000000 000000]  Child_status [1 1]
# node: n1(ll) center 001001 0 axis: 0 command_from [10 01 10 , self:00 , ce:0] data_from [000000 000003 000000] command_to [00 05 00] data_to [000000 000000 000000]  Child_status [1 1]
# node: root-right center 000000 0 axis: 0 command_from [1e 00 1e , self:00 , ce:0] data_from [000000 000000 000000] command_to [00 1e 00] data_to [000000 000000 000000]  Child_status [0 0]
# node: root-left  center 000000 0 axis: 0 command_from [05 01 1e , self:00 , ce:0] data_from [000000 000000 000000] command_to [01 00 01] data_to [000003 000000 000120]  Child_status [0 0]
# node: root  center 000000 0 axis: 0 command_from [00 01 1e , self:00 , ce:0] data_from [000000 000000 000000] command_to [01 00 00] data_to [000000 000000 000000]  Child_status [0 0]
#################### new cycle:        11 ##########################
# [       11] fill_center_tb tb_data: 000000 tb_command: 00001 serial_Count:         5 root_command_up: 00000
# node: n4(rr) center 000000 0 axis: 0 command_from [10 00 10 , self:00 , ce:0] data_from [000000 000000 000000] command_to [00 1e 00] data_to [000000 000000 000000]  Child_status [1 1]
# node: n3(rl) center 000000 0 axis: 0 command_from [10 00 10 , self:00 , ce:0] data_from [000000 000000 000000] command_to [00 1e 00] data_to [000000 000000 000000]  Child_status [1 1]
# node: n2(lr) center 000120 0 axis: 0 command_from [10 01 10 , self:00 , ce:0] data_from [000000 000003 000000] command_to [00 05 00] data_to [000000 000000 000000]  Child_status [1 1]
