verilog/kd_tree/simulation/modelsim/msim_transcript
# Reading pref.tcl
# do kd_tree_run_msim_rtl_verilog.do
# if {[file exists rtl_work]} {
# 	vdel -lib rtl_work -all
# }
# vlib rtl_work
# vmap work rtl_work
# Model Technology ModelSim - Intel FPGA Edition vmap 2020.1 Lib Mapping Utility 2020.02 Feb 28 2020
# vmap work rtl_work 
# Copying E:/modelSim/modelsim_ase/win32aloem/../modelsim.ini to modelsim.ini
# Modifying modelsim.ini
# 
# vlog -vlog01compat -work work +incdir+C:/Users/oxygen/Documents/GitHub/KMeansClusteringSW/verilog/kd_tree {C:/Users/oxygen/Documents/GitHub/KMeansClusteringSW/verilog/kd_tree/node.v}
# Model Technology ModelSim - Intel FPGA Edition vlog 2020.1 Compiler 2020.02 Feb 28 2020
# Start time: 01:24:52 on Apr 15,2021
# vlog -reportprogress 300 -vlog01compat -work work "+incdir+C:/Users/oxygen/Documents/GitHub/KMeansClusteringSW/verilog/kd_tree" C:/Users/oxygen/Documents/GitHub/KMeansClusteringSW/verilog/kd_tree/node.v 
# -- Compiling module node
# 
# Top level modules:
# 	node
# End time: 01:24:53 on Apr 15,2021, Elapsed time: 0:00:01
# Errors: 0, Warnings: 0
# vlog -vlog01compat -work work +incdir+C:/Users/oxygen/Documents/GitHub/KMeansClusteringSW/verilog/kd_tree {C:/Users/oxygen/Documents/GitHub/KMeansClusteringSW/verilog/kd_tree/manhattan.v}
# Model Technology ModelSim - Intel FPGA Edition vlog 2020.1 Compiler 2020.02 Feb 28 2020
# Start time: 01:24:53 on Apr 15,2021
# vlog -reportprogress 300 -vlog01compat -work work "+incdir+C:/Users/oxygen/Documents/GitHub/KMeansClusteringSW/verilog/kd_tree" C:/Users/oxygen/Documents/GitHub/KMeansClusteringSW/verilog/kd_tree/manhattan.v 
# -- Compiling module manhattan
# 
# Top level modules:
# 	manhattan
# End time: 01:24:53 on Apr 15,2021, Elapsed time: 0:00:00
# Errors: 0, Warnings: 0
# vlog -vlog01compat -work work +incdir+C:/Users/oxygen/Documents/GitHub/KMeansClusteringSW/verilog/kd_tree {C:/Users/oxygen/Documents/GitHub/KMeansClusteringSW/verilog/kd_tree/cluster_CE.v}
# Model Technology ModelSim - Intel FPGA Edition vlog 2020.1 Compiler 2020.02 Feb 28 2020
# Start time: 01:24:53 on Apr 15,2021
# vlog -reportprogress 300 -vlog01compat -work work "+incdir+C:/Users/oxygen/Documents/GitHub/KMeansClusteringSW/verilog/kd_tree" C:/Users/oxygen/Documents/GitHub/KMeansClusteringSW/verilog/kd_tree/cluster_CE.v 
# -- Compiling module cluster_CE
# 
# Top level modules:
# 	cluster_CE
# End time: 01:24:53 on Apr 15,2021, Elapsed time: 0:00:00
# Errors: 0, Warnings: 0
# vlog -vlog01compat -work work +incdir+C:/Users/oxygen/Documents/GitHub/KMeansClusteringSW/verilog/kd_tree {C:/Users/oxygen/Documents/GitHub/KMeansClusteringSW/verilog/kd_tree/kd_tree.v}
# Model Technology ModelSim - Intel FPGA Edition vlog 2020.1 Compiler 2020.02 Feb 28 2020
# Start time: 01:24:53 on Apr 15,2021
# vlog -reportprogress 300 -vlog01compat -work work "+incdir+C:/Users/oxygen/Documents/GitHub/KMeansClusteringSW/verilog/kd_tree" C:/Users/oxygen/Documents/GitHub/KMeansClusteringSW/verilog/kd_tree/kd_tree.v 
# -- Compiling module kd_tree
# ** Warning: C:/Users/oxygen/Documents/GitHub/KMeansClusteringSW/verilog/kd_tree/kd_tree.v(38): (vlog-2600) [RDGN] - Redundant digits in numeric literal.
# ** Warning: C:/Users/oxygen/Documents/GitHub/KMeansClusteringSW/verilog/kd_tree/kd_tree.v(39): (vlog-2600) [RDGN] - Redundant digits in numeric literal.
# ** Warning: C:/Users/oxygen/Documents/GitHub/KMeansClusteringSW/verilog/kd_tree/kd_tree.v(40): (vlog-2600) [RDGN] - Redundant digits in numeric literal.
# 
# Top level modules:
# 	kd_tree
# End time: 01:24:53 on Apr 15,2021, Elapsed time: 0:00:00
# Errors: 0, Warnings: 3
# 
# vlog -vlog01compat -work work +incdir+C:/Users/oxygen/Documents/GitHub/KMeansClusteringSW/verilog/kd_tree {C:/Users/oxygen/Documents/GitHub/KMeansClusteringSW/verilog/kd_tree/kd_tree.v}
# Model Technology ModelSim - Intel FPGA Edition vlog 2020.1 Compiler 2020.02 Feb 28 2020
# Start time: 01:24:53 on Apr 15,2021
# vlog -reportprogress 300 -vlog01compat -work work "+incdir+C:/Users/oxygen/Documents/GitHub/KMeansClusteringSW/verilog/kd_tree" C:/Users/oxygen/Documents/GitHub/KMeansClusteringSW/verilog/kd_tree/kd_tree.v 
# -- Compiling module kd_tree
# ** Warning: C:/Users/oxygen/Documents/GitHub/KMeansClusteringSW/verilog/kd_tree/kd_tree.v(38): (vlog-2600) [RDGN] - Redundant digits in numeric literal.
# ** Warning: C:/Users/oxygen/Documents/GitHub/KMeansClusteringSW/verilog/kd_tree/kd_tree.v(39): (vlog-2600) [RDGN] - Redundant digits in numeric literal.
# ** Warning: C:/Users/oxygen/Documents/GitHub/KMeansClusteringSW/verilog/kd_tree/kd_tree.v(40): (vlog-2600) [RDGN] - Redundant digits in numeric literal.
# 
# Top level modules:
# 	kd_tree
# End time: 01:24:53 on Apr 15,2021, Elapsed time: 0:00:00
# Errors: 0, Warnings: 3
# 
# vsim -t 1ps -L altera_ver -L lpm_ver -L sgate_ver -L altera_mf_ver -L altera_lnsim_ver -L cyclonev_ver -L cyclonev_hssi_ver -L cyclonev_pcie_hip_ver -L rtl_work -L work -voptargs="+acc"  kd_tree
# vsim -t 1ps -L altera_ver -L lpm_ver -L sgate_ver -L altera_mf_ver -L altera_lnsim_ver -L cyclonev_ver -L cyclonev_hssi_ver -L cyclonev_pcie_hip_ver -L rtl_work -L work -voptargs=""+acc"" kd_tree 
# Start time: 01:24:53 on Apr 15,2021
# Loading work.kd_tree
# Loading work.node
# Loading work.cluster_CE
# Loading work.manhattan
# ** Warning: (vsim-2685) [TFMPC] - Too few port connections for 'c_ce'.  Expected 21, found 20.
#    Time: 0 ps  Iteration: 0  Instance: /kd_tree/root/c_ce File: C:/Users/oxygen/Documents/GitHub/KMeansClusteringSW/verilog/kd_tree/node.v Line: 181
# ** Warning: (vsim-3722) C:/Users/oxygen/Documents/GitHub/KMeansClusteringSW/verilog/kd_tree/node.v(181): [TFMPC] - Missing connection for port 'point_prop'.
# ** Warning: (vsim-2685) [TFMPC] - Too few port connections for 'c_ce'.  Expected 21, found 20.
#    Time: 0 ps  Iteration: 0  Instance: /kd_tree/left/c_ce File: C:/Users/oxygen/Documents/GitHub/KMeansClusteringSW/verilog/kd_tree/node.v Line: 181
# ** Warning: (vsim-3722) C:/Users/oxygen/Documents/GitHub/KMeansClusteringSW/verilog/kd_tree/node.v(181): [TFMPC] - Missing connection for port 'point_prop'.
# ** Warning: (vsim-2685) [TFMPC] - Too few port connections for 'c_ce'.  Expected 21, found 20.
#    Time: 0 ps  Iteration: 0  Instance: /kd_tree/right/c_ce File: C:/Users/oxygen/Documents/GitHub/KMeansClusteringSW/verilog/kd_tree/node.v Line: 181
# ** Warning: (vsim-3722) C:/Users/oxygen/Documents/GitHub/KMeansClusteringSW/verilog/kd_tree/node.v(181): [TFMPC] - Missing connection for port 'point_prop'.
# ** Warning: (vsim-2685) [TFMPC] - Too few port connections for 'c_ce'.  Expected 21, found 20.
#    Time: 0 ps  Iteration: 0  Instance: /kd_tree/n1/c_ce File: C:/Users/oxygen/Documents/GitHub/KMeansClusteringSW/verilog/kd_tree/node.v Line: 181
# ** Warning: (vsim-3722) C:/Users/oxygen/Documents/GitHub/KMeansClusteringSW/verilog/kd_tree/node.v(181): [TFMPC] - Missing connection for port 'point_prop'.
# ** Warning: (vsim-2685) [TFMPC] - Too few port connections for 'c_ce'.  Expected 21, found 20.
#    Time: 0 ps  Iteration: 0  Instance: /kd_tree/n2/c_ce File: C:/Users/oxygen/Documents/GitHub/KMeansClusteringSW/verilog/kd_tree/node.v Line: 181
# ** Warning: (vsim-3722) C:/Users/oxygen/Documents/GitHub/KMeansClusteringSW/verilog/kd_tree/node.v(181): [TFMPC] - Missing connection for port 'point_prop'.
# ** Warning: (vsim-2685) [TFMPC] - Too few port connections for 'c_ce'.  Expected 21, found 20.
#    Time: 0 ps  Iteration: 0  Instance: /kd_tree/n3/c_ce File: C:/Users/oxygen/Documents/GitHub/KMeansClusteringSW/verilog/kd_tree/node.v Line: 181
# ** Warning: (vsim-3722) C:/Users/oxygen/Documents/GitHub/KMeansClusteringSW/verilog/kd_tree/node.v(181): [TFMPC] - Missing connection for port 'point_prop'.
# ** Warning: (vsim-2685) [TFMPC] - Too few port connections for 'c_ce'.  Expected 21, found 20.
#    Time: 0 ps  Iteration: 0  Instance: /kd_tree/n4/c_ce File: C:/Users/oxygen/Documents/GitHub/KMeansClusteringSW/verilog/kd_tree/node.v Line: 181
# ** Warning: (vsim-3722) C:/Users/oxygen/Documents/GitHub/KMeansClusteringSW/verilog/kd_tree/node.v(181): [TFMPC] - Missing connection for port 'point_prop'.
# 
# add wave *
# ** Warning: (vsim-WLF-5000) WLF file currently in use: vsim.wlf
#           File in use by: atom  Hostname: LAPTOP-84QNNI6Q  ProcessID: 12788
#           Attempting to use alternate WLF file "./wlftjxtv7z".
# ** Warning: (vsim-WLF-5001) Could not open WLF file: vsim.wlf
#           Using alternate file: ./wlftjxtv7z
# view structure
# .main_pane.structure.interior.cs.body.struct
# view signals
# .main_pane.objects.interior.cs.body.tree
# run -all
# Loading image.
# 
# ** Warning: (vsim-PLI-3407) Too many data words read on line 1 of file "C:/Users/oxygen/Documents/GitHub/KMeansClusteringSW/verilog/sequantial/test.hex". (Current address [20], address range [0:19])    : C:/Users/oxygen/Documents/GitHub/KMeansClusteringSW/verilog/kd_tree/kd_tree.v(220)
#    Time: 0 ps  Iteration: 0  Instance: /kd_tree
#################### new cycle:         0 ##########################
# [        0] idle
# node: n4(rr) center xxxxxx x axis: x command_from [10 xx 10 , self:00 , ce:0 , {s:x,pp:x,fd:x,ob:0,rt:0}] data_from [000000000000 xxxxxxxxxxxx 000000000000] command_to [xx xx xx] data_to [xxxxxxxxxxxx xxxxxxxxxxxx xxxxxxxxxxxx]  Child_status [1 1]
# node: n3(rl) center xxxxxx x axis: x command_from [10 xx 10 , self:00 , ce:0 , {s:x,pp:x,fd:x,ob:0,rt:0}] data_from [000000000000 xxxxxxxxxxxx 000000000000] command_to [xx xx xx] data_to [xxxxxxxxxxxx xxxxxxxxxxxx xxxxxxxxxxxx]  Child_status [1 1]
# node: n2(lr) center xxxxxx x axis: x command_from [10 xx 10 , self:00 , ce:0 , {s:x,pp:x,fd:x,ob:0,rt:0}] data_from [000000000000 xxxxxxxxxxxx 000000000000] command_to [xx xx xx] data_to [xxxxxxxxxxxx xxxxxxxxxxxx xxxxxxxxxxxx]  Child_status [1 1]
# node: n1(ll) center xxxxxx x axis: x command_from [10 xx 10 , self:00 , ce:0 , {s:x,pp:x,fd:x,ob:0,rt:0}] data_from [000000000000 xxxxxxxxxxxx 000000000000] command_to [xx xx xx] data_to [xxxxxxxxxxxx xxxxxxxxxxxx xxxxxxxxxxxx]  Child_status [1 1]
# node: root-right center xxxxxx x axis: x command_from [xx xx xx , self:xx , ce:x , {s:x,pp:x,fd:x,ob:x,rt:x}] data_from [xxxxxxxxxxxx xxxxxxxxxxxx xxxxxxxxxxxx] command_to [xx xx xx] data_to [xxxxxxxxxxxx xxxxxxxxxxxx xxxxxxxxxxxx]  Child_status [x x]
# node: root-left  center xxxxxx x axis: x command_from [xx xx xx , self:xx , ce:x , {s:x,pp:x,fd:x,ob:x,rt:x}] data_from [xxxxxxxxxxxx xxxxxxxxxxxx xxxxxxxxxxxx] command_to [xx xx xx] data_to [xxxxxxxxxxxx xxxxxxxxxxxx xxxxxxxxxxxx]  Child_status [x x]
# node: root  center xxxxxx x axis: x command_from [xx 1f xx , self:xx , ce:x , {s:x,pp:0,fd:x,ob:x,rt:x}] data_from [xxxxxxxxxxxx xxxxxxxxxxxx xxxxxxxxxxxx] command_to [xx xx xx] data_to [xxxxxxxxxxxx xxxxxxxxxxxx xxxxxxxxxxxx]  Child_status [x x]
#################### new cycle:         1 ##########################
# [        1] idle
# node: n4(rr) center xxxxxx x axis: x command_from [10 xx 10 , self:00 , ce:0 , {s:x,pp:x,fd:x,ob:0,rt:0}] data_from [000000000000 xxxxxxxxxxxx 000000000000] command_to [xx xx xx] data_to [xxxxxxxxxxxx xxxxxxxxxxxx xxxxxxxxxxxx]  Child_status [1 1]
# node: n3(rl) center xxxxxx x axis: x command_from [10 xx 10 , self:00 , ce:0 , {s:x,pp:x,fd:x,ob:0,rt:0}] data_from [000000000000 xxxxxxxxxxxx 000000000000] command_to [xx xx xx] data_to [xxxxxxxxxxxx xxxxxxxxxxxx xxxxxxxxxxxx]  Child_status [1 1]
# node: n2(lr) center xxxxxx x axis: x command_from [10 xx 10 , self:00 , ce:0 , {s:x,pp:x,fd:x,ob:0,rt:0}] data_from [000000000000 xxxxxxxxxxxx 000000000000] command_to [xx xx xx] data_to [xxxxxxxxxxxx xxxxxxxxxxxx xxxxxxxxxxxx]  Child_status [1 1]
# node: n1(ll) center xxxxxx x axis: x command_from [10 xx 10 , self:00 , ce:0 , {s:x,pp:x,fd:x,ob:0,rt:0}] data_from [000000000000 xxxxxxxxxxxx 000000000000] command_to [xx xx xx] data_to [xxxxxxxxxxxx xxxxxxxxxxxx xxxxxxxxxxxx]  Child_status [1 1]
# node: root-right center xxxxxx x axis: x command_from [xx 1f xx , self:xx , ce:x , {s:x,pp:0,fd:x,ob:x,rt:x}] data_from [xxxxxxxxxxxx 000000000000 xxxxxxxxxxxx] command_to [xx xx xx] data_to [xxxxxxxxxxxx xxxxxxxxxxxx xxxxxxxxxxxx]  Child_status [x x]
# node: root-left  center xxxxxx x axis: x command_from [xx 1f xx , self:xx , ce:x , {s:x,pp:0,fd:x,ob:x,rt:x}] data_from [xxxxxxxxxxxx 000000000000 xxxxxxxxxxxx] command_to [xx xx xx] data_to [xxxxxxxxxxxx xxxxxxxxxxxx xxxxxxxxxxxx]  Child_status [x x]
# node: root  center xxxxxx x axis: 0 command_from [xx 1f xx , self:xx , ce:x , {s:x,pp:0,fd:x,ob:x,rt:x}] data_from [xxxxxxxxxxxx xxxxxxxxxxxx xxxxxxxxxxxx] command_to [1f xx 1f] data_to [000000000000 000000000000 000000000000]  Child_status [x x]
#################### new cycle:         2 ##########################
# [        2] idle
# node: n4(rr) center xxxxxx x axis: x command_from [10 1f 10 , self:00 , ce:0 , {s:x,pp:0,fd:x,ob:0,rt:0}] data_from [000000000000 000000000000 000000000000] command_to [xx xx xx] data_to [xxxxxxxxxxxx xxxxxxxxxxxx xxxxxxxxxxxx]  Child_status [1 1]
# node: n3(rl) center xxxxxx x axis: x command_from [10 1f 10 , self:00 , ce:0 , {s:x,pp:0,fd:x,ob:0,rt:0}] data_from [000000000000 000000000000 000000000000] command_to [xx xx xx] data_to [xxxxxxxxxxxx xxxxxxxxxxxx xxxxxxxxxxxx]  Child_status [1 1]
# node: n2(lr) center xxxxxx x axis: x command_from [10 1f 10 , self:00 , ce:0 , {s:x,pp:0,fd:x,ob:0,rt:0}] data_from [000000000000 000000000000 000000000000] command_to [xx xx xx] data_to [xxxxxxxxxxxx xxxxxxxxxxxx xxxxxxxxxxxx]  Child_status [1 1]
# node: n1(ll) center xxxxxx x axis: x command_from [10 1f 10 , self:00 , ce:0 , {s:x,pp:0,fd:x,ob:0,rt:0}] data_from [000000000000 000000000000 000000000000] command_to [xx xx xx] data_to [xxxxxxxxxxxx xxxxxxxxxxxx xxxxxxxxxxxx]  Child_status [1 1]
# node: root-right center xxxxxx x axis: 0 command_from [xx 1f xx , self:xx , ce:x , {s:x,pp:0,fd:x,ob:x,rt:x}] data_from [xxxxxxxxxxxx 000000000000 xxxxxxxxxxxx] command_to [1f xx 1f] data_to [000000000000 000000000000 000000000000]  Child_status [x x]
# node: root-left  center xxxxxx x axis: 0 command_from [xx 1f xx , self:xx , ce:x , {s:x,pp:0,fd:x,ob:x,rt:x}] data_from [xxxxxxxxxxxx 000000000000 xxxxxxxxxxxx] command_to [1f xx 1f] data_to [000000000000 000000000000 000000000000]  Child_status [x x]
# node: root  center xxxxxx x axis: 0 command_from [xx 1f xx , self:xx , ce:x , {s:x,pp:0,fd:x,ob:x,rt:x}] data_from [000000000000 xxxxxxxxxxxx 000000000000] command_to [1f xx 1f] data_to [000000000000 000000000000 000000000000]  Child_status [x x]
#################### new cycle:         3 ##########################
# [        3] idle
# node: n4(rr) center 000000 0 axis: 0 command_from [10 1f 10 , self:00 , ce:0 , {s:0,pp:0,fd:0,ob:0,rt:0}] data_from [000000000000 000000000000 000000000000] command_to [00 1e 00] data_to [000000000000 000000000000 000000000000]  Child_status [1 1]
# node: n3(rl) center 000000 0 axis: 0 command_from [10 1f 10 , self:00 , ce:0 , {s:0,pp:0,fd:0,ob:0,rt:0}] data_from [000000000000 000000000000 000000000000] command_to [00 1e 00] data_to [000000000000 000000000000 000000000000]  Child_status [1 1]
# node: n2(lr) center 000000 0 axis: 0 command_from [10 1f 10 , self:00 , ce:0 , {s:0,pp:0,fd:0,ob:0,rt:0}] data_from [000000000000 000000000000 000000000000] command_to [00 1e 00] data_to [000000000000 000000000000 000000000000]  Child_status [1 1]
# node: n1(ll) center 000000 0 axis: 0 command_from [10 1f 10 , self:00 , ce:0 , {s:0,pp:0,fd:0,ob:0,rt:0}] data_from [000000000000 000000000000 000000000000] command_to [00 1e 00] data_to [000000000000 000000000000 000000000000]  Child_status [1 1]
# node: root-right center xxxxxx x axis: 0 command_from [1e 1f 1e , self:xx , ce:x , {s:x,pp:0,fd:x,ob:0,rt:0}] data_from [000000000000 000000000000 000000000000] command_to [1f xx 1f] data_to [000000000000 000000000000 000000000000]  Child_status [0 0]
# node: root-left  center xxxxxx x axis: 0 command_from [1e 1f 1e , self:xx , ce:x , {s:x,pp:0,fd:x,ob:0,rt:0}] data_from [000000000000 000000000000 000000000000] command_to [1f xx 1f] data_to [000000000000 000000000000 000000000000]  Child_status [0 0]
# node: root  center xxxxxx x axis: 0 command_from [xx 1f xx , self:xx , ce:x , {s:x,pp:0,fd:x,ob:x,rt:x}] data_from [000000000000 xxxxxxxxxxxx 000000000000] command_to [1f xx 1f] data_to [000000000000 000000000000 000000000000]  Child_status [x x]
#################### new cycle:         4 ##########################
# [        4] idle
# node: n4(rr) center 000000 0 axis: 0 command_from [10 00 10 , self:00 , ce:0 , {s:0,pp:0,fd:0,ob:0,rt:0}] data_from [000000000000 000000000000 000000000000] command_to [00 1e 00] data_to [000000000000 000000000000 000000000000]  Child_status [1 1]
# node: n3(rl) center 000000 0 axis: 0 command_from [10 00 10 , self:00 , ce:0 , {s:0,pp:0,fd:0,ob:0,rt:0}] data_from [000000000000 000000000000 000000000000] command_to [00 1e 00] data_to [000000000000 000000000000 000000000000]  Child_status [1 1]
# node: n2(lr) center 000000 0 axis: 0 command_from [10 00 10 , self:00 , ce:0 , {s:0,pp:0,fd:0,ob:0,rt:0}] data_from [000000000000 000000000000 000000000000] command_to [00 1e 00] data_to [000000000000 000000000000 000000000000]  Child_status [1 1]
# node: n1(ll) center 000000 0 axis: 0 command_from [10 00 10 , self:00 , ce:0 , {s:0,pp:0,fd:0,ob:0,rt:0}] data_from [000000000000 000000000000 000000000000] command_to [00 1e 00] data_to [000000000000 000000000000 000000000000]  Child_status [1 1]
# node: root-right center 000000 0 axis: 0 command_from [1e 1f 1e , self:00 , ce:0 , {s:0,pp:0,fd:0,ob:0,rt:0}] data_from [000000000000 000000000000 000000000000] command_to [00 1e 00] data_to [000000000000 000000000000 000000000000]  Child_status [0 0]
# node: root-left  center 000000 0 axis: 0 command_from [1e 1f 1e , self:00 , ce:0 , {s:0,pp:0,fd:0,ob:0,rt:0}] data_from [000000000000 000000000000 000000000000] command_to [00 1e 00] data_to [000000000000 000000000000 000000000000]  Child_status [0 0]
# node: root  center xxxxxx x axis: 0 command_from [1e 1f 1e , self:xx , ce:x , {s:x,pp:0,fd:x,ob:0,rt:0}] data_from [000000000000 xxxxxxxxxxxx 000000000000] command_to [1f xx 1f] data_to [000000000000 000000000000 000000000000]  Child_status [0 0]
#################### new cycle:         5 ##########################
# [        5] rst DONE
# node: n4(rr) center 000000 0 axis: 0 command_from [10 00 10 , self:00 , ce:0 , {s:0,pp:0,fd:0,ob:0,rt:0}] data_from [000000000000 000000000000 000000000000] command_to [00 1e 00] data_to [000000000000 000000000000 000000000000]  Child_status [1 1]
# node: n3(rl) center 000000 0 axis: 0 command_from [10 00 10 , self:00 , ce:0 , {s:0,pp:0,fd:0,ob:0,rt:0}] data_from [000000000000 000000000000 000000000000] command_to [00 1e 00] data_to [000000000000 000000000000 000000000000]  Child_status [1 1]
# node: n2(lr) center 000000 0 axis: 0 command_from [10 00 10 , self:00 , ce:0 , {s:0,pp:0,fd:0,ob:0,rt:0}] data_from [000000000000 000000000000 000000000000] command_to [00 1e 00] data_to [000000000000 000000000000 000000000000]  Child_status [1 1]
# node: n1(ll) center 000000 0 axis: 0 command_from [10 00 10 , self:00 , ce:0 , {s:0,pp:0,fd:0,ob:0,rt:0}] data_from [000000000000 000000000000 000000000000] command_to [00 1e 00] data_to [000000000000 000000000000 000000000000]  Child_status [1 1]
# node: root-right center 000000 0 axis: 0 command_from [1e 00 1e , self:00 , ce:0 , {s:0,pp:0,fd:0,ob:0,rt:0}] data_from [000000000000 000000000000 000000000000] command_to [00 1e 00] data_to [000000000000 000000000000 000000000000]  Child_status [0 0]
# node: root-left  center 000000 0 axis: 0 command_from [1e 00 1e , self:00 , ce:0 , {s:0,pp:0,fd:0,ob:0,rt:0}] data_from [000000000000 000000000000 000000000000] command_to [00 1e 00] data_to [000000000000 000000000000 000000000000]  Child_status [0 0]
# node: root  center 000000 0 axis: 0 command_from [1e 1f 1e , self:00 , ce:0 , {s:0,pp:0,fd:0,ob:0,rt:0}] data_from [000000000000 xxxxxxxxxxxx 000000000000] command_to [00 1e 00] data_to [000000000000 000000000000 000000000000]  Child_status [0 0]
#################### new cycle:         6 ##########################
# [        6] fill_center_tb tb_data: xxxxxxxxxxxx tb_command: 11111 serial_Count:         0 root_command_up: 11110
# node: n4(rr) center 000000 0 axis: 0 command_from [10 00 10 , self:00 , ce:0 , {s:0,pp:0,fd:0,ob:0,rt:0}] data_from [000000000000 000000000000 000000000000] command_to [00 1e 00] data_to [000000000000 000000000000 000000000000]  Child_status [1 1]
# node: n3(rl) center 000000 0 axis: 0 command_from [10 00 10 , self:00 , ce:0 , {s:0,pp:0,fd:0,ob:0,rt:0}] data_from [000000000000 000000000000 000000000000] command_to [00 1e 00] data_to [000000000000 000000000000 000000000000]  Child_status [1 1]
# node: n2(lr) center 000000 0 axis: 0 command_from [10 00 10 , self:00 , ce:0 , {s:0,pp:0,fd:0,ob:0,rt:0}] data_from [000000000000 000000000000 000000000000] command_to [00 1e 00] data_to [000000000000 000000000000 000000000000]  Child_status [1 1]
# node: n1(ll) center 000000 0 axis: 0 command_from [10 00 10 , self:00 , ce:0 , {s:0,pp:0,fd:0,ob:0,rt:0}] data_from [000000000000 000000000000 000000000000] command_to [00 1e 00] data_to [000000000000 000000000000 000000000000]  Child_status [1 1]
# node: root-right center 000000 0 axis: 0 command_from [1e 00 1e , self:00 , ce:0 , {s:0,pp:0,fd:0,ob:0,rt:0}] data_from [000000000000 000000000000 000000000000] command_to [00 1e 00] data_to [000000000000 000000000000 000000000000]  Child_status [0 0]
# node: root-left  center 000000 0 axis: 0 command_from [1e 00 1e , self:00 , ce:0 , {s:0,pp:0,fd:0,ob:0,rt:0}] data_from [000000000000 000000000000 000000000000] command_to [00 1e 00] data_to [000000000000 000000000000 000000000000]  Child_status [0 0]
# node: root  center 000000 0 axis: 0 command_from [1e 01 1e , self:00 , ce:0 , {s:0,pp:0,fd:0,ob:0,rt:0}] data_from [000000000000 000000001001 000000000000] command_to [00 1e 00] data_to [000000000000 000000000000 000000000000]  Child_status [0 0]
#################### new cycle:         7 ##########################
# [        7] fill_center_tb tb_data: 000000001001 tb_command: 00001 serial_Count:         1 root_command_up: 00000
# node: n4(rr) center 000000 0 axis: 0 command_from [10 00 10 , self:00 , ce:0 , {s:0,pp:0,fd:0,ob:0,rt:0}] data_from [000000000000 000000000000 000000000000] command_to [00 1e 00] data_to [000000000000 000000000000 000000000000]  Child_status [1 1]
# node: n3(rl) center 000000 0 axis: 0 command_from [10 00 10 , self:00 , ce:0 , {s:0,pp:0,fd:0,ob:0,rt:0}] data_from [000000000000 000000000000 000000000000] command_to [00 1e 00] data_to [000000000000 000000000000 000000000000]  Child_status [1 1]
# node: n2(lr) center 000000 0 axis: 0 command_from [10 00 10 , self:00 , ce:0 , {s:0,pp:0,fd:0,ob:0,rt:0}] data_from [000000000000 000000000000 000000000000] command_to [00 1e 00] data_to [000000000000 000000000000 000000000000]  Child_status [1 1]
# node: n1(ll) center 000000 0 axis: 0 command_from [10 00 10 , self:00 , ce:0 , {s:0,pp:0,fd:0,ob:0,rt:0}] data_from [000000000000 000000000000 000000000000] command_to [00 1e 00] data_to [000000000000 000000000000 000000000000]  Child_status [1 1]
# node: root-right center 000000 0 axis: 0 command_from [1e 00 1e , self:00 , ce:0 , {s:0,pp:0,fd:0,ob:0,rt:0}] data_from [000000000000 000000000000 000000000000] command_to [00 1e 00] data_to [000000000000 000000000000 000000000000]  Child_status [0 0]
# node: root-left  center 000000 0 axis: 0 command_from [1e 01 1e , self:00 , ce:0 , {s:0,pp:0,fd:0,ob:0,rt:0}] data_from [000000000000 000000001001 000000000000] command_to [00 1e 00] data_to [000000000000 000000000000 000000000000]  Child_status [0 0]
# node: root  center 000000 0 axis: 0 command_from [1e 01 1e , self:00 , ce:0 , {s:0,pp:0,fd:0,ob:0,rt:0}] data_from [000000000000 000000000120 000000000000] command_to [01 00 00] data_to [000000001001 000000000000 000000000000]  Child_status [0 0]
#################### new cycle:         8 ##########################
# [        8] fill_center_tb tb_data: 000000000120 tb_command: 00001 serial_Count:         2 root_command_up: 00000
# node: n4(rr) center 000000 0 axis: 0 command_from [10 00 10 , self:00 , ce:0 , {s:0,pp:0,fd:0,ob:0,rt:0}] data_from [000000000000 000000000000 000000000000] command_to [00 1e 00] data_to [000000000000 000000000000 000000000000]  Child_status [1 1]
# node: n3(rl) center 000000 0 axis: 0 command_from [10 00 10 , self:00 , ce:0 , {s:0,pp:0,fd:0,ob:0,rt:0}] data_from [000000000000 000000000000 000000000000] command_to [00 1e 00] data_to [000000000000 000000000000 000000000000]  Child_status [1 1]
# node: n2(lr) center 000000 0 axis: 0 command_from [10 00 10 , self:00 , ce:0 , {s:0,pp:0,fd:0,ob:0,rt:0}] data_from [000000000000 000000000000 000000000000] command_to [00 1e 00] data_to [000000000000 000000000000 000000000000]  Child_status [1 1]
# node: n1(ll) center 000000 0 axis: 0 command_from [10 01 10 , self:00 , ce:0 , {s:0,pp:0,fd:0,ob:0,rt:0}] data_from [000000000000 000000001001 000000000000] command_to [00 1e 00] data_to [000000000000 000000000000 000000000000]  Child_status [1 1]
# node: root-right center 000000 0 axis: 0 command_from [1e 00 1e , self:00 , ce:0 , {s:0,pp:0,fd:0,ob:0,rt:0}] data_from [000000000000 000000000000 000000000000] command_to [00 1e 00] data_to [000000000000 000000000000 000000000000]  Child_status [0 0]
# node: root-left  center 000000 0 axis: 0 command_from [1e 01 1e , self:00 , ce:0 , {s:0,pp:0,fd:0,ob:0,rt:0}] data_from [000000000000 000000000120 000000000000] command_to [01 00 00] data_to [000000001001 000000000000 000000000000]  Child_status [0 0]
# node: root  center 000000 0 axis: 0 command_from [00 01 1e , self:00 , ce:0 , {s:0,pp:0,fd:0,ob:0,rt:0}] data_from [000000000000 000000000003 000000000000] command_to [01 00 00] data_to [000000000120 000000000000 000000000000]  Child_status [0 0]
#################### new cycle:         9 ##########################
# [        9] fill_center_tb tb_data: 000000000003 tb_command: 00001 serial_Count:         3 root_command_up: 00000
# node: n4(rr) center 000000 0 axis: 0 command_from [10 00 10 , self:00 , ce:0 , {s:0,pp:0,fd:0,ob:0,rt:0}] data_from [000000000000 000000000000 000000000000] command_to [00 1e 00] data_to [000000000000 000000000000 000000000000]  Child_status [1 1]
# node: n3(rl) center 000000 0 axis: 0 command_from [10 00 10 , self:00 , ce:0 , {s:0,pp:0,fd:0,ob:0,rt:0}] data_from [000000000000 000000000000 000000000000] command_to [00 1e 00] data_to [000000000000 000000000000 000000000000]  Child_status [1 1]
# node: n2(lr) center 000000 0 axis: 0 command_from [10 00 10 , self:00 , ce:0 , {s:0,pp:0,fd:0,ob:0,rt:0}] data_from [000000000000 000000000000 000000000000] command_to [00 1e 00] data_to [000000000000 000000000000 000000000000]  Child_status [1 1]
# node: n1(ll) center 001001 0 axis: 0 command_from [10 01 10 , self:00 , ce:0 , {s:0,pp:0,fd:0,ob:0,rt:0}] data_from [000000000000 000000000120 000000000000] command_to [00 05 00] data_to [000000000000 000000000000 000000000000]  Child_status [1 1]
# node: root-right center 000000 0 axis: 0 command_from [1e 00 1e , self:00 , ce:0 , {s:0,pp:0,fd:0,ob:0,rt:0}] data_from [000000000000 000000000000 000000000000] command_to [00 1e 00] data_to [000000000000 000000000000 000000000000]  Child_status [0 0]
# node: root-left  center 000000 0 axis: 0 command_from [05 01 1e , self:00 , ce:0 , {s:0,pp:0,fd:0,ob:0,rt:0}] data_from [000000000000 000000000003 000000000000] command_to [01 00 00] data_to [000000000120 000000000000 000000000000]  Child_status [0 0]
